R-toolbox: All in One View
…
Getting this data on a tidy format is not trivial, but a resulting,
tidy, organised dataset would look something like this:

OUTPUT

# A tibble: 40 × 7
   country      year new   method sex   age_group cases
   <fct>       <dbl> <fct> <fct>  <fct> <fct>     <dbl>
 1 Afghanistan  2000 new   sp     m     0-14         52
 2 Afghanistan  2000 new   sp     m     15-24       228
 3 Afghanistan  2000 new   sp     m     25-34       183
 4 Afghanistan  2000 new   sp     m     35-44       149
 5 Afghanistan  2001 new   sp     m     0-14        129
 6 Afghanistan  2001 new   sp     m     15-24       379
 7 Afghanistan  2001 new   sp     m     25-34       349
 8 Afghanistan  2001 new   sp     m     35-44       274
 9 Afghanistan  2002 new   sp     m     0-14         90
10 Afghanistan  2002 new   sp     m     15-24       476
# ℹ 30 more rows
…
R

fev <- read_csv("data/FEV.csv")

The data contains measurements of age, height, sex and lung function
for 654 children, as well as an indication of wether or not they
smoke.

R

fev

OUTPUT

# A tibble: 654 × 6
      Id   Age   FEV   Hgt   Sex Smoke
   <dbl> <dbl> <dbl> <dbl> <dbl> <dbl>
 1   301     9  1.71  57       0     0
 2   451     8  1.72  67.5     0     0
 3   501     7  1.72  54.5     0     0
 4   642     9  1.56  53       1     0
 5   901     9  1.90  57       1     0
 6  1701     8  2.34  61       0     0
 7  1752     6  1.92  58       0     0
 8  1753     6  1.42  56       0     0
 9  1901     8  1.99  58.5     0     0
10  1951     9  1.94  60       0     0
# ℹ 644 more rows
…
