…
Det er de basale funktioner, som vi tager i brug når vi har en pæn og tidy
dataframe.

## select

Used for selecting individual variables - otherwise known as columns. Here we
are selecting the columns `species` and `island`:

``` r
penguins %>%
  select(species, island)
```

``` output
# A tibble: 344 × 2
   species island   
   <fct>   <fct>    
 1 Adelie  Torgersen
 2 Adelie  Torgersen
 3 Adelie  Torgersen
 4 Adelie  Torgersen
 5 Adelie  Torgersen
 6 Adelie  Torgersen
 7 Adelie  Torgersen
 8 Adelie  Torgersen
 9 Adelie  Torgersen
10 Adelie  Torgersen
# ℹ 334 more rows
```
For most purposes select is used for paring down the data to something that is
easier to grasp. Having 50 columns can be confusing, especially if we are only 
interested in two. 

Rather than specifying which columns we are interested in, we can specify
which columns we are _not_ interested in:


``` r
penguins %>% 
  select(-c(bill_length_mm, bill_depth_mm, year))
```

``` output
# A tibble: 344 × 5
   species island    flipper_length_mm body_mass_g sex   
   <fct>   <fct>                 <int>       <int> <fct> 
 1 Adelie  Torgersen               181        3750 male  
 2 Adelie  Torgersen               186        3800 female
 3 Adelie  Torgersen               195        3250 female
 4 Adelie  Torgersen                NA          NA <NA>  
 5 Adelie  Torgersen               193        3450 female
 6 Adelie  Torgersen               190        3650 male  
 7 Adelie  Torgersen               181        3625 female
 8 Adelie  Torgersen               195        4675 male  
 9 Adelie  Torgersen               193        3475 <NA>  
10 Adelie  Torgersen               190        4250 <NA>  
# ℹ 334 more rows
```
Collecting the uninteresting columns in a vector, and placing a `-` in front,
we can de-select the specified columns. In this case it is easier to specify
three columns we are not interested in, than specifying the six columns that we
_are_ interested in.

A range of functions for selecting columns exists:

``` r
penguins %>% 
  select(-starts_with("bill"), year)
```

``` output
# A tibble: 344 × 6
   species island    flipper_length_mm body_mass_g sex     year
   <fct>   <fct>                 <int>       <int> <fct>  <int>
 1 Adelie  Torgersen               181        3750 male    2007
 2 Adelie  Torgersen               186        3800 female  2007
 3 Adelie  Torgersen               195        3250 female  2007
 4 Adelie  Torgersen                NA          NA <NA>    2007
 5 Adelie  Torgersen               193        3450 female  2007
 6 Adelie  Torgersen               190        3650 male    2007
 7 Adelie  Torgersen               181        3625 female  2007
 8 Adelie  Torgersen               195        4675 male    2007
 9 Adelie  Torgersen               193        3475 <NA>    2007
10 Adelie  Torgersen               190        4250 <NA>    2007
# ℹ 334 more rows
```
Most can be found in the help for the package `tidyselect`.

A special way of specifying columns is the  `:` notation:


``` r
penguins %>% 
  select(species:bill_depth_mm)
```

``` output
# A tibble: 344 × 4
   species island    bill_length_mm bill_depth_mm
   <fct>   <fct>              <dbl>         <dbl>
 1 Adelie  Torgersen           39.1          18.7
 2 Adelie  Torgersen           39.5          17.4
 3 Adelie  Torgersen           40.3          18  
 4 Adelie  Torgersen           NA            NA  
 5 Adelie  Torgersen           36.7          19.3
 6 Adelie  Torgersen           39.3          20.6
 7 Adelie  Torgersen           38.9          17.8
 8 Adelie  Torgersen           39.2          19.6
 9 Adelie  Torgersen           34.1          18.1
10 Adelie  Torgersen           42            20.2
# ℹ 334 more rows
```
It selects all columns from `species` to `bill_depth_mm` (inclusive).

## filter()

The filter() function filters data, that is returns only the rows that conform
to one or more criteria:


``` r
penguins %>% 
  filter(species == "Adelie")
```

``` output
# A tibble: 152 × 8
   species island    bill_length_mm bill_depth_mm flipper_length_mm body_mass_g
   <fct>   <fct>              <dbl>         <dbl>             <int>       <int>
 1 Adelie  Torgersen           39.1          18.7               181        3750
 2 Adelie  Torgersen           39.5          17.4               186        3800
 3 Adelie  Torgersen           40.3          18                 195        3250
 4 Adelie  Torgersen           NA            NA                  NA          NA
 5 Adelie  Torgersen           36.7          19.3               193        3450
 6 Adelie  Torgersen           39.3          20.6               190        3650
 7 Adelie  Torgersen           38.9          17.8               181        3625
 8 Adelie  Torgersen           39.2          19.6               195        4675
 9 Adelie  Torgersen           34.1          18.1               193        3475
10 Adelie  Torgersen           42            20.2               190        4250
# ℹ 142 more rows
# ℹ 2 more variables: sex <fct>, year <int>
```
…
We are able to do a multitude of logical comparisons. Is bill_lenght_mm larger 
than 40 mm? Simply enter the expression `bill_length > 40`. Does `species` begin
with an "A"? Give filter() the expression str_starts(species, "A")


``` r
penguins %>% 
  filter(str_starts(species, "A"))
```

``` output
# A tibble: 152 × 8
   species island    bill_length_mm bill_depth_mm flipper_length_mm body_mass_g
   <fct>   <fct>              <dbl>         <dbl>             <int>       <int>
 1 Adelie  Torgersen           39.1          18.7               181        3750
 2 Adelie  Torgersen           39.5          17.4               186        3800
 3 Adelie  Torgersen           40.3          18                 195        3250
 4 Adelie  Torgersen           NA            NA                  NA          NA
 5 Adelie  Torgersen           36.7          19.3               193        3450
 6 Adelie  Torgersen           39.3          20.6               190        3650
 7 Adelie  Torgersen           38.9          17.8               181        3625
 8 Adelie  Torgersen           39.2          19.6               195        4675
 9 Adelie  Torgersen           34.1          18.1               193        3475
10 Adelie  Torgersen           42            20.2               190        4250
# ℹ 142 more rows
# ℹ 2 more variables: sex <fct>, year <int>
```

Any expression that can return a TRUE or FALSE value can be used in a filter(), 
and multiple expressions can be added:


``` r
penguins %>% 
  filter(str_starts(species, "A"),
         bill_length_mm > 40 | bill_depth_mm < 20)
```

``` output
# A tibble: 142 × 8
   species island    bill_length_mm bill_depth_mm flipper_length_mm body_mass_g
   <fct>   <fct>              <dbl>         <dbl>             <int>       <int>
 1 Adelie  Torgersen           39.1          18.7               181        3750
 2 Adelie  Torgersen           39.5          17.4               186        3800
 3 Adelie  Torgersen           40.3          18                 195        3250
 4 Adelie  Torgersen           36.7          19.3               193        3450
 5 Adelie  Torgersen           38.9          17.8               181        3625
 6 Adelie  Torgersen           39.2          19.6               195        4675
 7 Adelie  Torgersen           34.1          18.1               193        3475
 8 Adelie  Torgersen           42            20.2               190        4250
 9 Adelie  Torgersen           37.8          17.1               186        3300
10 Adelie  Torgersen           37.8          17.3               180        3700
# ℹ 132 more rows
# ℹ 2 more variables: sex <fct>, year <int>
```
…
## mutate()

The mutate() function allows us to make new columns, based on existing columns:


``` r
penguins %>% 
  select(species, bill_length_mm) %>% 
  mutate(bill_length_inch = bill_length_mm*0.0393701)
```

``` output
# A tibble: 344 × 3
   species bill_length_mm bill_length_inch
   <fct>            <dbl>            <dbl>
 1 Adelie            39.1             1.54
 2 Adelie            39.5             1.56
 3 Adelie            40.3             1.59
 4 Adelie            NA              NA   
 5 Adelie            36.7             1.44
 6 Adelie            39.3             1.55
 7 Adelie            38.9             1.53
 8 Adelie            39.2             1.54
 9 Adelie            34.1             1.34
10 Adelie            42               1.65
# ℹ 334 more rows
```
…
